{
  "activeViewId" : "5ee0fa37-7e4f-4436-9e86-0b09d2336122",
  "appPageId" : "72711686-f0a9-4e62-b41c-d89c43b0ded4",
  "configurationTags" : [ ],
  "id" : "70727f1f-1950-424e-bbe8-92704e1ec850",
  "label" : "Create Record",
  "routeType" : "createrecord",
  "type" : "route",
  "urlPrefix" : "createrecord"
}