{
  "activeViewId" : "028b98fc-9341-45f8-beed-d725b8a5241f",
  "appPageId" : "72711686-f0a9-4e62-b41c-d89c43b0ded4",
  "configurationTags" : [ ],
  "id" : "ebd84a27-d1e8-4ab3-b6f7-e85a2b0a1c9e",
  "label" : "Dashboard List",
  "routeType" : "list-01Z",
  "type" : "route",
  "urlPrefix" : "dashboard"
}