{
  "activeViewId" : "96f57d6b-7190-4541-b492-bd16bdaa50a9",
  "appPageId" : "72711686-f0a9-4e62-b41c-d89c43b0ded4",
  "configurationTags" : [ ],
  "id" : "4cfb7de4-ba12-4a83-b01b-ac65329bc8b3",
  "label" : "File List",
  "routeType" : "list-069",
  "type" : "route",
  "urlPrefix" : "contentdocument"
}