{
  "activeViewId" : "f91a030b-f0c0-40e7-9df4-1ed891f0f3b0",
  "appPageId" : "72711686-f0a9-4e62-b41c-d89c43b0ded4",
  "configurationTags" : [ ],
  "id" : "0abb0988-4d18-4fe3-b7ef-14e6fd811ab1",
  "label" : "Home",
  "pageAccess" : "UseParent",
  "routeType" : "home",
  "type" : "route",
  "urlPrefix" : ""
}