{
  "activeViewId" : "7144ecea-5f56-4283-97d6-96152c16c671",
  "appPageId" : "b5a74253-9164-4e92-8116-f0634e8321e1",
  "configurationTags" : [ ],
  "id" : "6a175da0-ce3d-4e49-8574-5601a6be9209",
  "label" : "Login",
  "routeType" : "login-home",
  "type" : "route",
  "urlPrefix" : ""
}