{
  "activeViewId" : "ec51284b-43fa-4042-aa01-c24127f286de",
  "appPageId" : "72711686-f0a9-4e62-b41c-d89c43b0ded4",
  "configurationTags" : [ ],
  "id" : "8cbe2ef9-958f-4630-a29d-6860705140df",
  "label" : "Question Detail",
  "routeType" : "feeditem",
  "type" : "route",
  "urlPrefix" : "question"
}