{
  "activeViewId" : "62e4cd73-c3b6-471b-80f9-6a667ebf5fea",
  "appPageId" : "72711686-f0a9-4e62-b41c-d89c43b0ded4",
  "configurationTags" : [ ],
  "id" : "3c8a9c04-56f4-44ef-bc6e-7728065ea1f8",
  "label" : "Record Detail",
  "routeType" : "detail",
  "type" : "route",
  "urlPrefix" : "detail"
}