{
  "activeViewId" : "68da7c2a-72ad-4c6c-b8fe-e83d9be1c975",
  "appPageId" : "b5a74253-9164-4e92-8116-f0634e8321e1",
  "configurationTags" : [ ],
  "id" : "3d54049f-4007-480d-a884-55105d403d37",
  "label" : "Register",
  "routeType" : "self-register",
  "type" : "route",
  "urlPrefix" : "SelfRegister"
}