{
  "activeViewId" : "83208b35-a51f-4322-a477-d00d33cfa48a",
  "appPageId" : "72711686-f0a9-4e62-b41c-d89c43b0ded4",
  "configurationTags" : [ ],
  "id" : "a4b26d91-ef6f-45a1-8921-294d0b5e51fc",
  "label" : "Report Related List",
  "routeType" : "relatedlist-00O",
  "type" : "route",
  "urlPrefix" : "report"
}