{
  "activeViewId" : "61a95485-fd0b-45ca-b281-dab983593bd0",
  "appPageId" : "72711686-f0a9-4e62-b41c-d89c43b0ded4",
  "configurationTags" : [ ],
  "id" : "7a901a56-948b-401e-b6ff-45609c5462b4",
  "label" : "User List",
  "routeType" : "list-005",
  "type" : "route",
  "urlPrefix" : "profile"
}