{
  "activeViewId" : "feb9953d-b9a1-44ff-ac81-d480031adfa4",
  "appPageId" : "ea2a87e9-6ad7-4f72-a39a-a92f4b1a4cde",
  "configurationTags" : [ ],
  "id" : "22d473d6-7eb7-439a-878b-b20e0b9a1316",
  "label" : "Case Related List",
  "routeType" : "relatedlist-500",
  "type" : "route",
  "urlPrefix" : "case"
}