{
  "activeViewId" : "0ffec1a4-62e0-4ad3-a951-4458c9a92cf3",
  "appPageId" : "ea2a87e9-6ad7-4f72-a39a-a92f4b1a4cde",
  "configurationTags" : [ ],
  "id" : "635ef8a4-54d4-4865-8b83-a95858b0693d",
  "label" : "Case List",
  "routeType" : "list-500",
  "type" : "route",
  "urlPrefix" : "case"
}