{
  "activeViewId" : "7472ccb7-f272-4abe-8ffa-86ffe109420c",
  "appPageId" : "ea2a87e9-6ad7-4f72-a39a-a92f4b1a4cde",
  "configurationTags" : [ ],
  "id" : "8d2b2649-737d-431c-b687-03b37aabc9a4",
  "label" : "File Detail",
  "routeType" : "detail-069",
  "type" : "route",
  "urlPrefix" : "contentdocument"
}