{
  "activeViewId" : "f9591846-e0b0-454d-bc94-5f97c25dd67c",
  "appPageId" : "ea2a87e9-6ad7-4f72-a39a-a92f4b1a4cde",
  "configurationTags" : [ ],
  "id" : "e744ef58-6b5e-400b-9a1a-9a641afcb016",
  "label" : "Related Record List",
  "pageAccess" : "UseParent",
  "routeType" : "relatedlist",
  "type" : "route",
  "urlPrefix" : "relatedlist"
}