{
  "activeViewId" : "59d0a2aa-fb29-47c2-8718-7ed7f8b90bbe",
  "appPageId" : "58af3aa5-3bb7-4298-bd47-4e0f06fe5826",
  "configurationTags" : [ ],
  "id" : "5254b01f-c5eb-4ee9-bd60-7eff88b96de8",
  "label" : "Home",
  "pageAccess" : "UseParent",
  "routeType" : "home",
  "type" : "route",
  "urlPrefix" : ""
}