{
  "activeViewId" : "ae84edb1-a27c-4968-839b-34b2bc87305d",
  "appPageId" : "58af3aa5-3bb7-4298-bd47-4e0f06fe5826",
  "configurationTags" : [ ],
  "id" : "94fd875c-038e-4a57-8ec6-d26c3441fd9d",
  "label" : "Report Detail",
  "routeType" : "detail-00O",
  "type" : "route",
  "urlPrefix" : "report"
}