{
  "appPageId" : "ea2a87e9-6ad7-4f72-a39a-a92f4b1a4cde",
  "componentName" : "siteforce:sldsOneColLayout",
  "id" : "609e8a11-6eb9-47b4-b011-9f14b9c38fb6",
  "label" : "Account Management",
  "regions" : [ {
    "id" : "a40702bf-b4f8-4e5f-ac8f-75239ffbbd22",
    "regionName" : "header",
    "type" : "region"
  }, {
    "components" : [ {
      "componentAttributes" : {
        "tabsetConfig" : {
          "UUID" : "da48ecc3-8ff2-47b7-8a14-8743251ec8c3",
          "activeTab" : "tab1",
          "tabs" : [ {
            "UUID" : "a084e7cd-1a7b-4fa5-82e1-e5e25aecfec5",
            "allowGuestUser" : false,
            "locked" : false,
            "seedComponents" : [ {
              "attributes" : {
                "customTitle" : "Members",
                "parentRecordId" : "{!CurrentUser.accountId}",
                "relatedListName" : "Users",
                "showBreadCrumbs" : "false",
                "showCustomTitle" : "true",
                "showManualRefreshButton" : "false",
                "showRowNumbers" : "false"
              },
              "fqn" : "forceCommunity:relatedList"
            } ],
            "tabKey" : "tab1",
            "tabName" : "Members"
          }, {
            "UUID" : "020d1cc9-b344-416f-b1ae-e2b88bcdc749",
            "allowGuestUser" : false,
            "locked" : false,
            "seedComponents" : [ {
              "attributes" : {
                "recordId" : "{!CurrentUser.accountId}"
              },
              "fqn" : "forceCommunity:accountBrandRecord"
            } ],
            "tabKey" : "tab2",
            "tabName" : "Branding"
          } ],
          "useOverflowMenu" : false
        }
      },
      "componentName" : "forceCommunity:tabset",
      "id" : "da48ecc3-8ff2-47b7-8a14-8743251ec8c3",
      "regions" : [ {
        "components" : [ {
          "componentAttributes" : {
            "customTitle" : "Members",
            "parentRecordId" : "{!CurrentUser.accountId}",
            "relatedListName" : "Users",
            "showBreadCrumbs" : false,
            "showCustomTitle" : true,
            "showManualRefreshButton" : false,
            "showRowNumbers" : false
          },
          "componentName" : "forceCommunity:relatedList",
          "id" : "d22806d2-082d-4c00-a354-c36741ba6375",
          "renditionMap" : { },
          "type" : "component"
        } ],
        "id" : "a084e7cd-1a7b-4fa5-82e1-e5e25aecfec5",
        "regionLabel" : "Members",
        "regionName" : "tab1",
        "renditionMap" : { },
        "type" : "region"
      }, {
        "components" : [ {
          "componentAttributes" : {
            "recordId" : "{!CurrentUser.accountId}"
          },
          "componentName" : "forceCommunity:accountBrandRecord",
          "id" : "403aa96c-e6e8-4376-8a95-271fc5d2f739",
          "renditionMap" : { },
          "type" : "component"
        } ],
        "id" : "020d1cc9-b344-416f-b1ae-e2b88bcdc749",
        "regionLabel" : "Branding",
        "regionName" : "tab2",
        "renditionMap" : { },
        "type" : "region"
      } ],
      "renderPriority" : "NEUTRAL",
      "renditionMap" : { },
      "type" : "component"
    } ],
    "id" : "4795562e-43f3-46d9-ae07-fbb8a3795fec",
    "regionName" : "content",
    "type" : "region"
  }, {
    "id" : "d38b396e-451c-4bd0-be46-9002d3025e83",
    "regionName" : "footer",
    "type" : "region"
  }, {
    "components" : [ {
      "componentAttributes" : {
        "customHeadTags" : "",
        "description" : "",
        "title" : "Account Management"
      },
      "componentName" : "forceCommunity:seoAssistant",
      "id" : "bcc06f99-046a-4e73-9831-59fb538159cc",
      "renditionMap" : { },
      "type" : "component"
    } ],
    "id" : "062d9e18-c19e-421e-bb65-e3c3246ed957",
    "regionName" : "sfdcHiddenRegion",
    "type" : "region"
  } ],
  "themeLayoutType" : "Inner",
  "type" : "view",
  "viewType" : "account-management"
}