{
  "appPageId" : "ea2a87e9-6ad7-4f72-a39a-a92f4b1a4cde",
  "componentName" : "siteforce:sldsOneColLayout",
  "id" : "feb9953d-b9a1-44ff-ac81-d480031adfa4",
  "label" : "Case Related List",
  "regions" : [ {
    "id" : "9ca7b6ca-6673-462b-a0ee-995aeb92aa0e",
    "regionName" : "header",
    "type" : "region"
  }, {
    "components" : [ {
      "componentAttributes" : {
        "customTitle" : "",
        "parentRecordId" : "{!recordId}",
        "relatedListName" : "{!relationshipApiName}",
        "showBreadCrumbs" : true,
        "showCustomTitle" : false,
        "showManualRefreshButton" : true,
        "showRowNumbers" : true
      },
      "componentName" : "forceCommunity:relatedList",
      "id" : "1dada38a-5bfd-4fb0-b669-762076afb844",
      "renderPriority" : "NEUTRAL",
      "renditionMap" : { },
      "type" : "component"
    } ],
    "id" : "bfedad75-70d0-4fe7-89db-20bf2c29e6a2",
    "regionName" : "content",
    "type" : "region"
  }, {
    "id" : "f125d061-9393-4b73-b52f-f0300d9b1880",
    "regionName" : "footer",
    "type" : "region"
  } ],
  "themeLayoutType" : "Inner",
  "type" : "view",
  "viewType" : "relatedlist-500"
}