{
  "appPageId" : "ea2a87e9-6ad7-4f72-a39a-a92f4b1a4cde",
  "componentName" : "siteforce:sldsOneColLayout",
  "id" : "9fee8125-a2d0-46e1-8dd4-4c68380013ff",
  "label" : "Dashboard Detail",
  "regions" : [ {
    "id" : "940f956b-48eb-4b9a-a8f9-bcab816bcbac",
    "regionName" : "header",
    "type" : "region"
  }, {
    "components" : [ {
      "componentAttributes" : {
        "height" : "1065",
        "recordId" : "{!recordId}"
      },
      "componentName" : "forceCommunity:dashboard",
      "id" : "f22db79e-7678-419a-94ef-dd2e507dab40",
      "renderPriority" : "NEUTRAL",
      "renditionMap" : { },
      "type" : "component"
    } ],
    "id" : "eb27c6e8-1a72-4e24-8ee2-6eaf1f583aab",
    "regionName" : "content",
    "type" : "region"
  }, {
    "id" : "75f33e2c-1cd3-496e-aac3-f1ce9a5ffa9b",
    "regionName" : "footer",
    "type" : "region"
  }, {
    "components" : [ {
      "componentAttributes" : {
        "customHeadTags" : "",
        "description" : "",
        "title" : "{!Record._Object}: {!Record._Title}"
      },
      "componentName" : "forceCommunity:seoAssistant",
      "id" : "bf199eac-6247-43ba-8a49-9f2c36492d4a",
      "renditionMap" : { },
      "type" : "component"
    } ],
    "id" : "7931d39a-5b40-4c5f-b6b0-48ba89c30bbc",
    "regionName" : "sfdcHiddenRegion",
    "type" : "region"
  } ],
  "themeLayoutType" : "Inner",
  "type" : "view",
  "viewType" : "detail-01Z"
}