{
  "appPageId" : "ea2a87e9-6ad7-4f72-a39a-a92f4b1a4cde",
  "componentName" : "siteforce:sldsOneColLayout",
  "id" : "411cfd7c-7c86-4c7f-bba2-93c6d57648ee",
  "label" : "Report Builder",
  "regions" : [ {
    "id" : "7d8edaff-59ab-49ce-86df-46723d6af574",
    "regionName" : "header",
    "type" : "region"
  }, {
    "components" : [ {
      "componentAttributes" : {
        "recordId" : "{!recordId}"
      },
      "componentName" : "forceCommunity:reportBuilder",
      "id" : "ec0e9835-e211-4328-b950-c74ad44b9843",
      "renderPriority" : "NEUTRAL",
      "renditionMap" : { },
      "type" : "component"
    } ],
    "id" : "37960bef-8af0-4c2f-a1ec-c1b4082f1968",
    "regionName" : "content",
    "type" : "region"
  }, {
    "id" : "e4c7f84d-5fe3-476a-934e-857d0dfbf343",
    "regionName" : "footer",
    "type" : "region"
  } ],
  "themeLayoutType" : "Inner",
  "type" : "view",
  "viewType" : "createreport"
}