{
  "appPageId" : "ea2a87e9-6ad7-4f72-a39a-a92f4b1a4cde",
  "componentName" : "siteforce:sldsOneColLayout",
  "id" : "04334dbe-9632-4474-9994-5f159f221631",
  "label" : "Top Articles",
  "regions" : [ {
    "id" : "1f8fabe1-5b44-4a3c-a7bd-33c21df0bbaa",
    "regionName" : "header",
    "type" : "region"
  }, {
    "components" : [ {
      "componentAttributes" : {
        "numberOfArticles" : 5,
        "showTitle" : true,
        "title" : "Top Articles",
        "topicList" : [ ]
      },
      "componentName" : "forceCommunity:topArticleList",
      "id" : "54305c79-f2e7-413d-bff1-85096f7a854b",
      "renderPriority" : "NEUTRAL",
      "renditionMap" : { },
      "type" : "component"
    } ],
    "id" : "8007f66c-0b74-470d-9f5c-1484e5c8f00f",
    "regionName" : "content",
    "type" : "region"
  }, {
    "id" : "fdafe2fe-65a2-429f-8696-23e1b2ebf644",
    "regionName" : "footer",
    "type" : "region"
  }, {
    "components" : [ {
      "componentAttributes" : {
        "customHeadTags" : "",
        "description" : "",
        "title" : "Top Articles"
      },
      "componentName" : "forceCommunity:seoAssistant",
      "id" : "a0fa2d9b-af2f-4905-b199-11b9399e5822",
      "renditionMap" : { },
      "type" : "component"
    } ],
    "id" : "2912ad23-a614-4208-b70a-210c7a048447",
    "regionName" : "sfdcHiddenRegion",
    "type" : "region"
  } ],
  "themeLayoutType" : "Inner",
  "type" : "view",
  "viewType" : "top-articles"
}