{
  "activeViewId" : "5c582799-d036-4d27-88ea-b3c3a598bf14",
  "appPageId" : "a21ad960-6bad-451a-87bb-4d11a47c66b3",
  "configurationTags" : [ ],
  "id" : "7c4bc31f-977b-4eb0-9625-5f89d2e77eb4",
  "label" : "Check Password",
  "routeType" : "check-password",
  "type" : "route",
  "urlPrefix" : "CheckPasswordResetEmail"
}