{
  "activeViewId" : "7cecfb73-a27c-4827-a43c-e2db4b967904",
  "appPageId" : "a21ad960-6bad-451a-87bb-4d11a47c66b3",
  "configurationTags" : [ ],
  "id" : "c161b16d-70a5-49ba-9884-ca7361c74bd6",
  "label" : "Login",
  "routeType" : "login-home",
  "type" : "route",
  "urlPrefix" : ""
}