{
  "activeViewId" : "f4385f4d-8534-44c8-a151-c2c375da8709",
  "appPageId" : "1b3f5107-8969-4f7f-b915-b4bbffd0a734",
  "configurationTags" : [ ],
  "id" : "d4b3ebc0-8ad9-4f0b-abc3-1e8f1a6ff3c0",
  "label" : "Report List",
  "routeType" : "list-00O",
  "type" : "route",
  "urlPrefix" : "report"
}