<?xml version="1.0" encoding="UTF-8"?>
<CustomTab xmlns="http://soap.sforce.com/2006/04/metadata">
    <customObject>true</customObject>
    <description>List of Shipments related to Webfleet Contracts</description>
    <motif>Custom98: Truck</motif>
</CustomTab>
