{
  "appPageId" : "72711686-f0a9-4e62-b41c-d89c43b0ded4",
  "componentName" : "siteforce:sldsOneColLayout",
  "id" : "4c206716-7561-4845-b63c-1d1c9ede1f12",
  "label" : "Account Management",
  "regions" : [ {
    "id" : "4e5c3348-f5cc-4541-8d99-20a29f48848c",
    "regionName" : "header",
    "type" : "region"
  }, {
    "components" : [ {
      "componentAttributes" : {
        "tabsetConfig" : {
          "UUID" : "9b75f19b-841b-47c6-b434-e22bd5ecbb32",
          "activeTab" : "tab1",
          "tabs" : [ {
            "UUID" : "2e8f96a5-0adb-4548-a402-cdcd500ada73",
            "allowGuestUser" : false,
            "locked" : false,
            "seedComponents" : [ {
              "attributes" : {
                "parentRecordId" : "{!CurrentUser.accountId}",
                "relatedListName" : "Users"
              },
              "fqn" : "forceCommunity:relatedList"
            } ],
            "tabKey" : "tab1",
            "tabName" : "Members"
          }, {
            "UUID" : "954b343e-75f3-47a2-b210-0966955e2093",
            "allowGuestUser" : false,
            "locked" : false,
            "seedComponents" : [ {
              "attributes" : {
                "recordId" : "{!CurrentUser.accountId}"
              },
              "fqn" : "forceCommunity:accountBrandRecord"
            } ],
            "tabKey" : "tab2",
            "tabName" : "Branding"
          } ],
          "useOverflowMenu" : false
        }
      },
      "componentName" : "forceCommunity:tabset",
      "id" : "9b75f19b-841b-47c6-b434-e22bd5ecbb32",
      "regions" : [ {
        "components" : [ {
          "componentAttributes" : {
            "parentRecordId" : "{!CurrentUser.accountId}",
            "relatedListName" : "Users"
          },
          "componentName" : "forceCommunity:relatedList",
          "id" : "d4fb7e75-9950-48b1-8692-8b42a467214a",
          "renditionMap" : { },
          "type" : "component"
        } ],
        "id" : "2e8f96a5-0adb-4548-a402-cdcd500ada73",
        "regionLabel" : "Members",
        "regionName" : "tab1",
        "renditionMap" : { },
        "type" : "region"
      }, {
        "components" : [ {
          "componentAttributes" : {
            "recordId" : "{!CurrentUser.accountId}"
          },
          "componentName" : "forceCommunity:accountBrandRecord",
          "id" : "58365b05-f818-4b69-a6f5-b19b916cbcab",
          "renditionMap" : { },
          "type" : "component"
        } ],
        "id" : "954b343e-75f3-47a2-b210-0966955e2093",
        "regionLabel" : "Branding",
        "regionName" : "tab2",
        "renditionMap" : { },
        "type" : "region"
      } ],
      "renderPriority" : "NEUTRAL",
      "renditionMap" : { },
      "type" : "component"
    } ],
    "id" : "7f38bc47-9c7c-4e9e-971a-035c17d72b6c",
    "regionName" : "content",
    "type" : "region"
  }, {
    "id" : "d50a13f5-8f90-4015-bdc1-f50ae4b9b2fd",
    "regionName" : "footer",
    "type" : "region"
  }, {
    "components" : [ {
      "componentAttributes" : {
        "customHeadTags" : "",
        "description" : "",
        "title" : "Account Management"
      },
      "componentName" : "forceCommunity:seoAssistant",
      "id" : "a49740f3-b0b6-42e2-baa3-11ee3fe79825",
      "renditionMap" : { },
      "type" : "component"
    } ],
    "id" : "acf723d7-7968-46d9-880c-b9f4aaf84350",
    "regionName" : "sfdcHiddenRegion",
    "type" : "region"
  } ],
  "themeLayoutType" : "Inner",
  "type" : "view",
  "viewType" : "account-management"
}