{
  "appPageId" : "72711686-f0a9-4e62-b41c-d89c43b0ded4",
  "componentName" : "siteforce:sldsOneColLayout",
  "id" : "7740a8d6-96b6-42b0-a29b-a0beaeefe2dc",
  "label" : "Dashboard Related List",
  "regions" : [ {
    "id" : "4caffb37-0cb2-4775-9ea2-c3187e72a62e",
    "regionName" : "header",
    "type" : "region"
  }, {
    "components" : [ {
      "componentAttributes" : {
        "parentRecordId" : "{!parentRecordId}",
        "relatedListName" : "{!relatedListName}"
      },
      "componentName" : "forceCommunity:relatedList",
      "id" : "b62a424c-3fba-41b4-8c87-d0c6ace28c3e",
      "renderPriority" : "NEUTRAL",
      "renditionMap" : { },
      "type" : "component"
    } ],
    "id" : "7a40971b-087d-4199-a76b-c9fc3a9b9877",
    "regionName" : "content",
    "type" : "region"
  }, {
    "id" : "4f50a5fa-c1d4-4a64-82d8-ed28d58eed48",
    "regionName" : "footer",
    "type" : "region"
  } ],
  "themeLayoutType" : "Inner",
  "type" : "view",
  "viewType" : "relatedlist-01Z"
}