{
  "appPageId" : "72711686-f0a9-4e62-b41c-d89c43b0ded4",
  "componentName" : "siteforce:sldsOneColLayout",
  "id" : "af590432-6aa8-421d-ba5d-96027c326700",
  "label" : "File Related List",
  "regions" : [ {
    "id" : "1aeca243-0f0c-4e40-b574-2fde62474e27",
    "regionName" : "header",
    "type" : "region"
  }, {
    "components" : [ {
      "componentAttributes" : {
        "parentRecordId" : "{!parentRecordId}",
        "relatedListName" : "{!relatedListName}"
      },
      "componentName" : "forceCommunity:relatedList",
      "id" : "e6e832d2-06b6-4830-8348-2733a264a975",
      "renderPriority" : "NEUTRAL",
      "renditionMap" : { },
      "type" : "component"
    } ],
    "id" : "90cf3eb9-ad45-46b6-9304-6de40d2e19e1",
    "regionName" : "content",
    "type" : "region"
  }, {
    "id" : "ac652216-a355-429d-a44b-c2d80d1376a9",
    "regionName" : "footer",
    "type" : "region"
  } ],
  "themeLayoutType" : "Inner",
  "type" : "view",
  "viewType" : "relatedlist-069"
}