{
  "appPageId" : "b5a74253-9164-4e92-8116-f0634e8321e1",
  "componentName" : "siteforce:sldsOneColLayout",
  "id" : "7656186f-5fe7-43fe-99ac-28b720d21171",
  "label" : "Forgot Password",
  "regions" : [ {
    "components" : [ {
      "componentAttributes" : {
        "richTextValue" : "<div style=\"text-align: center;\"><span style=\"font-size:22px\">PASSWORD RESET</span></div>"
      },
      "componentName" : "forceCommunity:richTextInline",
      "id" : "d63b8145-9f50-4c86-88e6-e3f781b63389",
      "renderPriority" : "NEUTRAL",
      "renditionMap" : { },
      "type" : "component"
    }, {
      "componentAttributes" : {
        "richTextValue" : "<div style=\"text-align: center;\">Please enter the email address that you used when creating your account. An email will be sent to that address with further instructions on how to reset your password.</div>"
      },
      "componentName" : "forceCommunity:richTextInline",
      "id" : "df4d1daf-518d-4ee0-ba62-7b6e28e496ea",
      "renderPriority" : "NEUTRAL",
      "renditionMap" : { },
      "type" : "component"
    }, {
      "componentAttributes" : {
        "checkEmailUrl" : "./CheckPasswordResetEmail",
        "submitButtonLabel" : "Send Password Reset Email",
        "usernameLabel" : "Username"
      },
      "componentName" : "salesforceIdentity:forgotPassword2",
      "id" : "3558b1d1-6357-435e-a2e3-0873559b9905",
      "renderPriority" : "NEUTRAL",
      "renditionMap" : { },
      "type" : "component"
    }, {
      "componentAttributes" : {
        "richTextValue" : "<div style=\"text-align: center;\"><a href=\"./\">Cancel</a></div>"
      },
      "componentName" : "forceCommunity:richTextInline",
      "id" : "b13baea9-279f-4beb-8335-42261c12152b",
      "renderPriority" : "NEUTRAL",
      "renditionMap" : { },
      "type" : "component"
    } ],
    "id" : "2c1d9f5f-c7b1-4675-a832-d8ca1495a44e",
    "regionName" : "content",
    "type" : "region"
  }, {
    "components" : [ {
      "componentAttributes" : {
        "customHeadTags" : "",
        "description" : "",
        "title" : "Forgot Password"
      },
      "componentName" : "forceCommunity:seoAssistant",
      "id" : "6785e68c-b128-4711-bcc0-e2939faf1829",
      "renditionMap" : { },
      "type" : "component"
    } ],
    "id" : "1e721dcb-bd4c-4209-bee0-99b1e1ea90ae",
    "regionName" : "sfdcHiddenRegion",
    "type" : "region"
  } ],
  "themeLayoutType" : "Login",
  "type" : "view",
  "viewType" : "forgot-password"
}