{
  "appPageId" : "72711686-f0a9-4e62-b41c-d89c43b0ded4",
  "componentName" : "siteforce:sldsOneColLayout",
  "id" : "0c870acf-cd05-4609-90b4-3f7c26becfe7",
  "label" : "Report Builder",
  "regions" : [ {
    "id" : "4d20392a-0a73-47d7-96c5-3f490127517a",
    "regionName" : "header",
    "type" : "region"
  }, {
    "components" : [ {
      "componentAttributes" : {
        "recordId" : "{!recordId}"
      },
      "componentName" : "forceCommunity:reportBuilder",
      "id" : "14d6a5d4-b6dc-49b1-9b23-77d45f3a4042",
      "renderPriority" : "NEUTRAL",
      "renditionMap" : { },
      "type" : "component"
    } ],
    "id" : "eb0eb87b-81ca-4338-a930-8b90ac2bd895",
    "regionName" : "content",
    "type" : "region"
  }, {
    "id" : "a6d30c8f-9c11-4b9b-aff0-105e7b01786b",
    "regionName" : "footer",
    "type" : "region"
  } ],
  "themeLayoutType" : "Inner",
  "type" : "view",
  "viewType" : "createreport"
}