{
  "appPageId" : "72711686-f0a9-4e62-b41c-d89c43b0ded4",
  "componentName" : "siteforce:sldsOneColLayout",
  "id" : "9c4d54bd-3536-49e6-8885-d08d07fe635b",
  "label" : "User Profile",
  "regions" : [ {
    "components" : [ {
      "componentAttributes" : {
        "id" : "{!recordId}",
        "profileTabLabel" : "Profile",
        "richTextValue" : "<img alt='Banner image at the top of the page' class='sfdcCbImage' src='/sfsites/c/img/community/cpt/cpt-profile-banner.png'/>",
        "settingsTabLabel" : "Settings & Preferences",
        "showBannerImage" : true,
        "showSettingsTab" : true
      },
      "componentName" : "forceCommunity:userProfileWithBanner",
      "id" : "a1161a12-25b6-4e43-b04c-23f46307d2e9",
      "renderPriority" : "NEUTRAL",
      "renditionMap" : { },
      "type" : "component"
    } ],
    "id" : "fae9575a-df83-4808-9c4f-3a69a2cab610",
    "regionName" : "header",
    "type" : "region"
  }, {
    "id" : "e6ceccbb-0413-4957-ba94-ad706584b9e0",
    "regionName" : "content",
    "type" : "region"
  }, {
    "id" : "e80894c8-e9ee-409a-a63a-5907bb4ac5cf",
    "regionName" : "footer",
    "type" : "region"
  } ],
  "themeLayoutType" : "Inner",
  "type" : "view",
  "viewType" : "detail-005"
}