{
  "appPageId" : "58af3aa5-3bb7-4298-bd47-4e0f06fe5826",
  "componentName" : "siteforce:sldsOneColLayout",
  "id" : "692da80b-9df8-4e72-8b4e-3588d16d831e",
  "label" : "Record List",
  "regions" : [ {
    "id" : "af6c1e2a-a33e-4c37-a6af-88729f7cc45c",
    "regionName" : "header",
    "type" : "region"
  }, {
    "components" : [ {
      "componentAttributes" : {
        "filterName" : "{!filterId}",
        "layout" : "FULL",
        "pageSize" : 25,
        "scope" : "{!objectName}",
        "showDisplay" : "showall"
      },
      "componentName" : "forceCommunity:objectHome",
      "id" : "50317488-b776-41dd-942a-df42ac3113bc",
      "renderPriority" : "NEUTRAL",
      "renditionMap" : { },
      "type" : "component"
    } ],
    "id" : "51c5d128-129a-4d46-950a-2f78df3237d8",
    "regionName" : "content",
    "type" : "region"
  }, {
    "id" : "7185fbd0-5940-4699-8c75-af71d4f35cd1",
    "regionName" : "footer",
    "type" : "region"
  } ],
  "themeLayoutType" : "Inner",
  "type" : "view",
  "viewType" : "list"
}