{
  "appPageId" : "58af3aa5-3bb7-4298-bd47-4e0f06fe5826",
  "componentName" : "siteforce:sldsOneColLayout",
  "id" : "ae84edb1-a27c-4968-839b-34b2bc87305d",
  "label" : "Report Detail",
  "regions" : [ {
    "id" : "593b5348-894b-4d75-991a-b5af541ae3a3",
    "regionName" : "header",
    "type" : "region"
  }, {
    "components" : [ {
      "componentAttributes" : {
        "recordId" : "{!recordId}"
      },
      "componentName" : "forceCommunity:reportPage",
      "id" : "ceed9ddb-d3a8-4ea9-b3e3-c5f50d21d926",
      "renderPriority" : "NEUTRAL",
      "renditionMap" : { },
      "type" : "component"
    } ],
    "id" : "f414eb1b-dfc1-4428-bb78-8fcfd4987b21",
    "regionName" : "content",
    "type" : "region"
  }, {
    "components" : [ {
      "componentAttributes" : {
        "askCommunityLabel" : "Ask a Question",
        "contactSupportLabel" : "Contact Support",
        "headerLabel" : "Don't see what you're looking for?",
        "showDetails" : false,
        "showTopics" : true
      },
      "componentName" : "siteforce:napiliFooter",
      "id" : "39caec00-e626-4ed2-b86f-2e4c8ca90d5d",
      "renderPriority" : "NEUTRAL",
      "renditionMap" : { },
      "type" : "component"
    } ],
    "id" : "13102302-4f6e-4a2d-8879-48b71abe14d4",
    "regionName" : "footer",
    "type" : "region"
  }, {
    "components" : [ {
      "componentAttributes" : {
        "customHeadTags" : "",
        "description" : "",
        "title" : "{!Record._Object}: {!Record._Title}"
      },
      "componentName" : "forceCommunity:seoAssistant",
      "id" : "de6437da-2f04-4dcc-8741-d60f65bbeee3",
      "renditionMap" : { },
      "type" : "component"
    } ],
    "id" : "b58052e9-1494-4c47-9581-236a41d60821",
    "regionName" : "sfdcHiddenRegion",
    "type" : "region"
  } ],
  "themeLayoutType" : "Inner",
  "type" : "view",
  "viewType" : "detail-00O"
}