{
  "appPageId" : "58af3aa5-3bb7-4298-bd47-4e0f06fe5826",
  "componentName" : "siteforce:sldsOneColLayout",
  "id" : "295b8f8a-33d9-48ba-869e-de567eb064e7",
  "label" : "Top Articles",
  "regions" : [ {
    "id" : "ccde614c-6929-40c6-b863-db162e47a1f2",
    "regionName" : "header",
    "type" : "region"
  }, {
    "components" : [ {
      "componentAttributes" : {
        "numberOfArticles" : 5,
        "showTitle" : true,
        "title" : "Top Articles",
        "topicList" : [ ]
      },
      "componentName" : "forceCommunity:topArticleList",
      "id" : "0080da37-f29d-4d6c-8752-49ed26bca165",
      "renderPriority" : "NEUTRAL",
      "renditionMap" : { },
      "type" : "component"
    } ],
    "id" : "1b6cd21a-8717-4168-a93a-577c82d156c2",
    "regionName" : "content",
    "type" : "region"
  }, {
    "id" : "771f9bca-ede6-4ce8-903c-ff481d56e097",
    "regionName" : "footer",
    "type" : "region"
  }, {
    "components" : [ {
      "componentAttributes" : {
        "customHeadTags" : "",
        "description" : "",
        "title" : "Top Articles"
      },
      "componentName" : "forceCommunity:seoAssistant",
      "id" : "d149f248-fc61-4f28-8e05-06ea04141d70",
      "renditionMap" : { },
      "type" : "component"
    } ],
    "id" : "3e06d5f4-85f4-4e7b-8f7f-5ec9e0667f71",
    "regionName" : "sfdcHiddenRegion",
    "type" : "region"
  } ],
  "themeLayoutType" : "Inner",
  "type" : "view",
  "viewType" : "top-articles"
}