{
  "appPageId" : "58af3aa5-3bb7-4298-bd47-4e0f06fe5826",
  "componentName" : "siteforce:sldsOneColLayout",
  "id" : "e5eb2c39-b30d-471c-bf5e-d4eb6afe95a3",
  "label" : "User List",
  "regions" : [ {
    "id" : "a6bc3798-fcdc-4c88-a660-f498d86b0f64",
    "regionName" : "header",
    "type" : "region"
  }, {
    "id" : "8edbab1a-ecdd-4e11-bfff-c1c56a36cddf",
    "regionName" : "content",
    "type" : "region"
  }, {
    "id" : "ef52ab55-a0e0-4fb7-8537-fad3fa0cc8db",
    "regionName" : "footer",
    "type" : "region"
  } ],
  "themeLayoutType" : "Inner",
  "type" : "view",
  "viewType" : "list-005"
}