{
  "appPageId" : "1b3f5107-8969-4f7f-b915-b4bbffd0a734",
  "componentName" : "siteforce:sldsOneColLayout",
  "id" : "0eb8d547-9597-49a9-a140-4e920d8d452a",
  "label" : "Dashboard List",
  "regions" : [ {
    "id" : "af725add-9d73-449d-a451-219f6d41a497",
    "regionName" : "header",
    "type" : "region"
  }, {
    "components" : [ {
      "componentAttributes" : { },
      "componentName" : "forceCommunity:dashboardList",
      "id" : "a42752f7-69a8-4e2d-8b4f-dd30edabdbfe",
      "renderPriority" : "NEUTRAL",
      "renditionMap" : { },
      "type" : "component"
    } ],
    "id" : "9a1e5aa7-68ee-4f6f-b5d0-58ed37e4e507",
    "regionName" : "content",
    "type" : "region"
  }, {
    "id" : "546ae387-d36a-4977-a1ed-9fcd71be47d5",
    "regionName" : "footer",
    "type" : "region"
  } ],
  "themeLayoutType" : "Inner",
  "type" : "view",
  "viewType" : "list-01Z"
}