{
  "appPageId" : "1b3f5107-8969-4f7f-b915-b4bbffd0a734",
  "componentName" : "siteforce:sldsOneColLayout",
  "id" : "98189706-7fb9-416b-874c-f87eb7433af6",
  "label" : "Search",
  "regions" : [ {
    "id" : "52d6b5c8-01ad-4789-ba87-1d6ca2d1325b",
    "regionName" : "header",
    "type" : "region"
  }, {
    "components" : [ {
      "componentAttributes" : {
        "scopes" : [ {
          "isPublic" : true,
          "name" : "Lead"
        }, {
          "isPublic" : true,
          "name" : "Contact"
        }, {
          "isPublic" : true,
          "name" : "Account"
        }, {
          "isPublic" : false,
          "name" : "Case"
        }, {
          "isPublic" : true,
          "name" : "KnowledgeArticleVersion"
        } ],
        "searchTerm" : "{!searchString}",
        "showTopResults" : true
      },
      "componentName" : "forceCommunity:search",
      "id" : "6f5f5ed5-fee8-4807-9150-dd9d9b575119",
      "renderPriority" : "NEUTRAL",
      "renditionMap" : { },
      "type" : "component"
    } ],
    "id" : "056bbfaa-0c60-4e54-9d20-63b95030006c",
    "regionName" : "content",
    "type" : "region"
  }, {
    "id" : "8e315193-9d61-4309-a18d-3dc58899857e",
    "regionName" : "footer",
    "type" : "region"
  } ],
  "themeLayoutType" : "Inner",
  "type" : "view",
  "viewType" : "global-search"
}