{
  "appPageId" : "1b3f5107-8969-4f7f-b915-b4bbffd0a734",
  "componentName" : "siteforce:sldsOneColLayout",
  "id" : "7d50d4c7-ad96-4c2a-bda6-7f63c2dc5951",
  "label" : "Topic Catalog",
  "regions" : [ {
    "components" : [ {
      "componentAttributes" : {
        "bannerText" : "",
        "bannerTextWithKnowledge" : "Explore other <a href=\"javascript:void(0)\" class=\"headlineArticles\">articles</a> and <a href=\"javascript:void(0)\" class=\"headlineDiscussions\">discussions</a> on this topic.",
        "bannerTextWithoutKnowledge" : "Explore other <a href=\"javascript:void(0)\" class=\"headlineDiscussions\">discussions</a> on this topic.",
        "pageType" : "",
        "showSubTopics" : true,
        "title" : "Topics",
        "uniqueNameOrId" : ""
      },
      "componentName" : "forceCommunity:headline",
      "id" : "28857102-6f9b-4a6a-94c0-41181cdae963",
      "renderPriority" : "NEUTRAL",
      "renditionMap" : { },
      "type" : "component"
    } ],
    "id" : "d91e6c55-47a7-45c8-8905-b2c13665a052",
    "regionName" : "header",
    "type" : "region"
  }, {
    "components" : [ {
      "componentAttributes" : { },
      "componentName" : "forceCommunity:topicCatalog",
      "id" : "8b20c94f-7df6-4add-a9bc-2bf26ba59716",
      "renderPriority" : "NEUTRAL",
      "renditionMap" : { },
      "type" : "component"
    } ],
    "id" : "50f917f4-7496-4af7-bd28-3bb7461076e6",
    "regionName" : "content",
    "type" : "region"
  }, {
    "id" : "68700a52-de23-4110-a5e8-7276be3722d6",
    "regionName" : "footer",
    "type" : "region"
  }, {
    "components" : [ {
      "componentAttributes" : {
        "customHeadTags" : "",
        "description" : "",
        "title" : "Topic Catalog"
      },
      "componentName" : "forceCommunity:seoAssistant",
      "id" : "fc3a0a34-7c5b-44be-8e1d-008c03e4e669",
      "renditionMap" : { },
      "type" : "component"
    } ],
    "id" : "723a9b7a-6fa9-4e29-9c9d-913b33210fe9",
    "regionName" : "sfdcHiddenRegion",
    "type" : "region"
  } ],
  "themeLayoutType" : "Inner",
  "type" : "view",
  "viewType" : "topic-catalog"
}