{
  "cmsSettings" : { },
  "currentThemeId" : "6f53fe60-6946-4919-8797-fb14f7f4a592",
  "headMarkup" : null,
  "id" : "1b3f5107-8969-4f7f-b915-b4bbffd0a734",
  "isRelaxedCSPLevel" : true,
  "label" : "main",
  "templateName" : "CPT Community Template",
  "type" : "appPage"
}