{
  "definitionName" : "service:branding-service",
  "id" : "66d7a040-7fa5-40a9-8508-2b499d1dac71",
  "label" : "Branding",
  "type" : "brandingSet",
  "values" : {
    "ActionColor" : "#2574A9",
    "BorderColor" : "#D4D4D4",
    "CardBackgroundColor" : "rgba(255, 255, 255, 0)",
    "CompanyLogo" : "",
    "DetailTextColor" : "#696969",
    "ErrorFontColor" : "#ff9e9e",
    "HeaderFonts" : "Montserrat",
    "HeaderImage" : "",
    "LinkColor" : "#2574A9",
    "LoginBackgroundColor" : "#F4F4F4",
    "LoginBackgroundImage" : "../../../../sfsites/picasso/core/external/salesforceIdentity/images/background.jpg?v=1",
    "OverlayTextColor" : "#FFFFFF",
    "PageBackgroundColor" : "#FFFFFF",
    "PrimaryFont" : "Lato",
    "TextColor" : "#333",
    "TextTransformStyle" : "uppercase",
    "_ActionColorDarker" : "#135F90",
    "_ActionColorTrans" : "rgba(25, 124, 190, 0.9)",
    "_ColorBackgroundTransparent" : "rgba(255, 255, 255, 0.0)",
    "_ColorBackgroundWhite" : "#FFFFFF",
    "_HoverColor" : "rgba(25, 124, 190, 0.05)",
    "_LinkColorDarker" : "#135F90",
    "_brandNavigationBarBackgroundColor" : "rgba(128,128,128,.75)",
    "_brandNavigationItemBackgroundColorHover" : "rgba(0,0,0,.2)",
    "_brandNavigationItemDividerColor" : "rgba(255, 255, 255, 0.2)",
    "_desktopFontSizeLarge" : "1rem",
    "_desktopFontSizeMedium" : "0.8125rem",
    "_desktopFontSizeMediumA" : "0.875rem",
    "_desktopFontSizeSmall" : "0.75rem",
    "_desktopFontSizeXLarge" : "1.25rem",
    "_desktopFontSizeXxLarge" : "1.75rem",
    "_desktopLineHeightText" : "1.5",
    "_desktopSquareIconMedium" : "2rem",
    "brandNavigationBackgroundColor" : "rgb(128,128,128)",
    "brandNavigationColorText" : "#FFFFFF"
  }
}